<svg width="100" height="100" viewBox="0 0 100 100" fill="none" xmlns="http://www.w3.org/2000/svg">
<circle r="4.54801" transform="matrix(-1 0 0 1 5.29964 5.29801)" stroke="#F58A20" stroke-width="1.5"/>
<circle r="4.54801" transform="matrix(-1 0 0 1 5.29964 94.7019)" stroke="#224089" stroke-width="1.5"/>
<circle r="4.54801" transform="matrix(-1 0 0 1 94.0379 5.29801)" stroke="#F58A20" stroke-width="1.5"/>
<circle r="4.54801" transform="matrix(-1 0 0 1 94.0379 94.7019)" stroke="#224089" stroke-width="1.5"/>
<circle r="4.54801" transform="matrix(-1 0 0 1 71.5223 5.29801)" stroke="#F58A20" stroke-width="1.5"/>
<circle r="4.54801" transform="matrix(-1 0 0 1 71.5223 94.7019)" stroke="#224089" stroke-width="1.5"/>
<circle r="4.54801" transform="matrix(-1 0 0 1 49.0067 5.29801)" stroke="#F58A20" stroke-width="1.5"/>
<circle r="4.54801" transform="matrix(-1 0 0 1 49.0067 94.7019)" stroke="#224089" stroke-width="1.5"/>
<circle r="4.54801" transform="matrix(-1 0 0 1 26.491 5.29801)" stroke="#F58A20" stroke-width="1.5"/>
<circle r="4.54801" transform="matrix(-1 0 0 1 26.491 94.7019)" stroke="#224089" stroke-width="1.5"/>
<path d="M17.8417 82.0315L50.3295 24.7001L82.8173 82.0315H17.8417Z" stroke="#F58A20" stroke-width="1.5"/>
<path d="M82.8184 17.9685L50.3306 75.2999L17.8428 17.9685L82.8184 17.9685Z" stroke="#224089" stroke-width="1.5"/>
</svg>
