<svg width="21" height="24" viewBox="0 0 21 24" fill="" xmlns="http://www.w3.org/2000/svg">
<path d="M10.5188 12.1956C13.6311 12.1956 16.1561 9.67057 16.1561 6.55826C16.1561 3.44562 13.6307 0.95 10.5188 0.95C7.40646 0.95 4.8814 3.47506 4.8814 6.58737C4.8814 9.70001 7.4068 12.1956 10.5188 12.1956ZM10.5188 2.12673C12.9647 2.12673 14.9503 4.11231 14.9503 6.55826C14.9503 9.00422 12.9647 10.9898 10.5188 10.9898C8.0728 10.9898 6.08723 9.00422 6.08723 6.55826C6.08723 4.11231 8.0728 2.12673 10.5188 2.12673Z" fill="" stroke="black" stroke-width="0.1"/>
<path d="M2.12673 22.9999C2.12673 21.0043 2.8497 19.0949 4.12288 17.5612C5.36675 16.115 7.04431 15.1315 8.92445 14.7553C9.44614 14.6684 9.99592 14.6106 10.516 14.6106C15.1445 14.6106 18.9052 18.3713 18.9052 22.9999V23.0499H18.9552H20.0611H20.1111V22.9999C20.1111 17.734 15.8108 13.4339 10.516 13.4339C9.90182 13.4339 9.28747 13.4924 8.70212 13.6094C6.56648 14.019 4.63591 15.1599 3.2319 16.7979L3.23172 16.7982C1.76913 18.524 0.95 20.718 0.95 22.9999V23.0499H1H2.07673H2.12673V22.9999Z" fill="" stroke="black" stroke-width="0.1"/>
</svg>
