<svg width="80" height="80" viewBox="0 0 80 80" fill="none" xmlns="http://www.w3.org/2000/svg">
<path d="M33.5363 16.8316C32.316 16.8373 31.0957 16.8447 29.8755 16.8493C29.6348 16.855 29.4074 17.0289 29.3397 17.2599C29.0789 18.2359 28.7719 19.2013 28.4825 20.1697C27.8622 20.3734 27.2536 20.6258 26.661 20.9373L24.0181 19.4556C23.8011 19.3405 23.5104 19.3863 23.3395 19.5627L20.7501 22.1512C20.5793 22.3263 20.5411 22.6163 20.6608 22.8296L22.1073 25.4894C21.8088 26.0768 21.5518 26.6747 21.3573 27.3103L18.4286 28.1672C18.1976 28.2348 18.0232 28.4622 18.0179 28.7027L18 32.3803C17.9999 32.6313 18.1854 32.8709 18.4286 32.9337L21.3751 33.7727C21.5713 34.4044 21.8327 35.0156 22.143 35.5935L20.6251 38.2356C20.4968 38.4524 20.5355 38.7543 20.7144 38.9318L23.3038 41.5203C23.4789 41.691 23.769 41.7292 23.9824 41.6095L26.6789 40.1456C27.2645 40.4532 27.8633 40.7033 28.5004 40.8955L29.3219 43.8232C29.3847 44.0662 29.6243 44.2517 29.8755 44.2516H33.572C33.8187 44.2516 34.0562 44.0776 34.1256 43.841L34.9292 40.8955C35.5758 40.6962 36.193 40.4553 36.7686 40.1456L39.4294 41.6273C39.6427 41.7469 39.9329 41.7088 40.108 41.5381L42.6974 38.9497C42.8738 38.7788 42.9198 38.4881 42.8045 38.2713L41.3045 35.5935C41.616 35.0098 41.8906 34.4017 42.0902 33.7549L45.0189 32.9337C45.2556 32.8643 45.4318 32.6268 45.4296 32.3803L45.4118 28.685C45.4066 28.4444 45.2321 28.217 45.0011 28.1494L42.0902 27.3283C41.8828 26.695 41.632 26.094 41.3223 25.5074L42.7867 22.8297C42.9064 22.6164 42.8682 22.3264 42.6974 22.1513L40.108 19.5628C39.9329 19.3922 39.6427 19.354 39.4294 19.4736L36.7686 20.9553C36.1897 20.6563 35.5843 20.3887 34.9471 20.1877L34.0899 17.2422C34.0205 17.0055 33.7829 16.8293 33.5363 16.8316ZM33.1256 17.974L33.9113 20.7589C33.9675 20.949 34.1296 21.104 34.3221 21.1516C35.1007 21.3639 35.827 21.6844 36.5543 22.0799C36.7185 22.1669 36.9258 22.1669 37.09 22.0799L39.608 20.6696L41.5902 22.6512L40.1973 25.1861C40.0976 25.3588 40.0976 25.5847 40.1973 25.7573C40.5873 26.4309 40.8788 27.1648 41.1259 27.971C41.1789 28.1569 41.3328 28.3106 41.5188 28.3637L44.2689 29.1313L44.2867 31.9697L41.5009 32.7373C41.3149 32.7904 41.161 32.9441 41.108 33.13C40.8937 33.9153 40.5718 34.664 40.1794 35.3436C40.0797 35.5163 40.0797 35.7422 40.1794 35.9148L41.5902 38.4498L39.6079 40.4313L37.0721 39.0031C36.9036 38.9099 36.6871 38.9099 36.5185 39.0031C35.833 39.4001 35.0921 39.7204 34.3042 39.9315C34.1075 39.9823 33.9441 40.1454 33.8934 40.3421L33.1434 43.1091H30.3219L29.5361 40.3242C29.4854 40.1276 29.3221 39.9643 29.1254 39.9136C28.3285 39.6963 27.5999 39.4085 26.9289 39.021C26.7561 38.9214 26.5302 38.9214 26.3574 39.021L23.8216 40.3956L21.8394 38.4319L23.268 35.9148C23.3624 35.7391 23.3553 35.5132 23.2502 35.3436C22.8552 34.6615 22.542 33.9039 22.3395 33.1478C22.2887 32.9512 22.1254 32.7879 21.9287 32.7373L19.1429 31.9518L19.1607 29.1313L21.9466 28.3458C22.1367 28.2898 22.2918 28.1276 22.3394 27.9352C22.555 27.145 22.8417 26.44 23.2323 25.7216C23.3256 25.5532 23.3256 25.3367 23.2323 25.1682L21.8573 22.6512L23.8395 20.6696L26.3396 22.0799C26.5154 22.1742 26.7414 22.1671 26.911 22.0622C27.5815 21.674 28.3495 21.3727 29.1254 21.1339C29.3074 21.0842 29.4601 20.9384 29.5183 20.759L30.304 17.992L33.1256 17.974ZM53.6978 30.5771C52.7813 30.8276 51.8649 31.0787 50.9477 31.3267C50.7102 31.3879 50.5267 31.6172 50.5191 31.8622L50.4656 34.183C50.0726 34.443 49.6998 34.7316 49.3405 35.0577L47.1083 34.4865C46.8721 34.4305 46.6057 34.5448 46.4833 34.7543L45.0547 37.2356C44.9304 37.4453 44.9609 37.7348 45.1261 37.914L46.7333 39.5741C46.6362 40.0457 46.5577 40.5172 46.5369 41.0022L44.5546 42.1984C44.3445 42.3278 44.2371 42.6037 44.3046 42.841L45.0368 45.608C45.098 45.8455 45.3274 46.0288 45.5725 46.0364L47.9119 46.0719C48.1715 46.4755 48.464 46.8474 48.7869 47.1965L48.1976 49.4279C48.1334 49.6691 48.249 49.9464 48.4655 50.0706L50.9477 51.4988C51.1574 51.6229 51.4471 51.5924 51.6263 51.4273L53.305 49.8029C53.7695 49.9032 54.2405 49.9625 54.7157 49.9814L55.8944 51.9807C56.0186 52.1972 56.296 52.3128 56.5372 52.2485L59.3409 51.4988C59.5719 51.4311 59.7463 51.2038 59.7516 50.9632L59.7695 48.6425C60.1803 48.3788 60.5661 48.0891 60.9124 47.7678L63.1625 48.339C63.4037 48.4033 63.6811 48.2876 63.8053 48.0712L65.234 45.6078C65.3623 45.3909 65.3236 45.089 65.1447 44.9115L63.5196 43.2514C63.6222 42.7935 63.6743 42.3193 63.6982 41.8411L65.7161 40.645C65.9327 40.5208 66.0483 40.2435 65.984 40.0023L65.2161 37.2175C65.1533 36.9744 64.9137 36.789 64.6625 36.7891L62.3767 36.7714C62.1116 36.3703 61.8263 35.985 61.5017 35.6288L62.0553 33.3796C62.1112 33.1434 61.997 32.8772 61.7874 32.7548L59.3052 31.3266C59.0918 31.207 58.8017 31.2452 58.6266 31.4159L56.9658 33.0225C56.5007 32.9238 56.0258 32.8509 55.5372 32.8262L54.3407 30.8446C54.1539 30.5456 53.907 30.5377 53.6978 30.5771ZM53.5728 31.7912L54.6978 33.6477C54.7984 33.8219 54.9967 33.9351 55.1978 33.9333C55.8161 33.9333 56.4146 34.0333 57.0372 34.1833C57.2273 34.2256 57.4376 34.1627 57.5729 34.0226L59.1087 32.541L60.8409 33.5407L60.323 35.6293C60.2761 35.8164 60.332 36.026 60.4659 36.1648C60.8875 36.5853 61.2625 37.0933 61.6088 37.6465C61.7107 37.809 61.8991 37.9136 62.091 37.9143L64.216 37.932L64.7518 39.8778L62.8946 40.9846C62.7254 41.0822 62.6132 41.2715 62.6088 41.4666C62.606 42.0917 62.5325 42.7061 62.3767 43.2875C62.3232 43.4797 62.3795 43.6985 62.5196 43.8409L64.0196 45.3939L63.0196 47.1255L60.9123 46.59C60.7222 46.5477 60.5119 46.6106 60.3766 46.7507C59.9465 47.1817 59.454 47.5626 58.9123 47.8753C58.7432 47.9728 58.6309 48.1621 58.6265 48.3573L58.6087 50.5173L56.6622 51.0351L55.5729 49.1606C55.4678 48.993 55.2706 48.8875 55.0729 48.8929C54.4357 48.8872 53.8235 48.8141 53.2514 48.6608C53.0642 48.6139 52.8546 48.6699 52.7156 48.8036L51.1441 50.3031L49.4119 49.3034L49.9477 47.2148C50.0012 47.0225 49.9448 46.8038 49.8048 46.6614C49.3762 46.234 48.9794 45.7342 48.6798 45.2154C48.5822 45.0463 48.3928 44.9342 48.1976 44.9298L46.0368 44.8943L45.5189 42.9485L47.3761 41.8417C47.5438 41.7367 47.6495 41.5396 47.644 41.3418C47.6469 40.7117 47.7287 40.1336 47.8762 39.521C47.9231 39.3339 47.8673 39.1244 47.7333 38.9855L46.2511 37.4323L47.2511 35.7008L49.3227 36.2363C49.518 36.2854 49.7376 36.2214 49.8762 36.0756C50.2942 35.6568 50.8084 35.2849 51.3406 34.951C51.5031 34.8491 51.6078 34.6608 51.6085 34.469L51.662 32.3269L53.5728 31.7912ZM36.5543 44.2871C35.6378 44.5376 34.7213 44.7887 33.8042 45.0367C33.5667 45.0979 33.3832 45.3272 33.3756 45.5722L33.3221 47.893C32.9291 48.153 32.5563 48.4416 32.197 48.7677L29.9648 48.1965C29.7285 48.1405 29.4622 48.2547 29.3398 48.4642L27.9111 50.9456C27.7869 51.1553 27.8174 51.4448 27.9826 51.6239L29.5898 53.2841C29.4927 53.7557 29.4142 54.2272 29.3933 54.7122L27.4111 55.9084C27.201 56.0377 27.0936 56.3136 27.1611 56.551L27.8933 59.318C27.9545 59.5555 28.1839 59.7389 28.429 59.7465L30.7684 59.7819C31.028 60.1855 31.3205 60.5574 31.6434 60.9065L31.0541 63.1379C30.9899 63.3791 31.1054 63.6564 31.322 63.7806L33.8042 65.2087C34.0139 65.3329 34.3036 65.3024 34.4828 65.1373L36.1615 63.5129C36.626 63.6131 37.097 63.6725 37.5722 63.6914L38.7508 65.6907C38.8751 65.9072 39.1525 66.0228 39.3937 65.9585L42.1974 65.2087C42.4284 65.1411 42.6027 64.9138 42.6081 64.6733L42.626 62.3524C43.0368 62.0888 43.4225 61.7992 43.7689 61.4778L46.019 62.049C46.2602 62.1133 46.5376 61.9976 46.6618 61.7813L48.0905 59.3178C48.2188 59.1009 48.18 58.799 48.0012 58.6216L46.3761 56.9613C46.4787 56.5034 46.5308 56.0292 46.5547 55.5511L48.5726 54.355C48.7892 54.2308 48.9048 53.9535 48.8405 53.7123L48.0726 50.9275C48.0098 50.6844 47.7702 50.4989 47.519 50.499L45.2332 50.4813C44.9681 50.0802 44.6827 49.695 44.3582 49.3388L44.9118 47.0896C44.9677 46.8534 44.8535 46.5872 44.6439 46.4648L42.1617 45.0366C41.9483 44.917 41.6582 44.9552 41.4831 45.1259L39.8223 46.7325C39.3572 46.6338 38.8823 46.5609 38.3937 46.5362L37.1972 44.5546C37.0104 44.2555 36.7489 44.2218 36.5543 44.2871ZM36.4293 45.5011L37.5543 47.3577C37.6549 47.5318 37.8532 47.6451 38.0543 47.6433C38.6726 47.6433 39.2711 47.7433 39.8937 47.8933C40.0838 47.9356 40.2941 47.8727 40.4294 47.7326L41.9652 46.2509L43.6974 47.2507L43.1795 49.3392C43.1326 49.5263 43.1884 49.736 43.3224 49.8748C43.744 50.2953 44.119 50.8033 44.4653 51.3565C44.5672 51.519 44.7556 51.6235 44.9475 51.6242L47.0725 51.6419L47.6083 53.5878L45.7511 54.6946C45.5819 54.7922 45.4697 54.9815 45.4653 55.1766C45.4625 55.8017 45.389 56.416 45.2332 56.9974C45.1797 57.1896 45.236 57.4085 45.376 57.5509L46.8761 59.1039L45.8761 60.8356L43.7688 60.3C43.5787 60.2577 43.3684 60.3206 43.2331 60.4607C42.803 60.8918 42.3105 61.2726 41.7688 61.5853C41.5997 61.6829 41.4874 61.8721 41.483 62.0673L41.4652 64.2274L39.5187 64.745L38.4294 62.8706C38.3243 62.703 38.1271 62.5974 37.9294 62.6029C37.2922 62.5972 36.6799 62.5242 36.1079 62.3708C35.9207 62.3239 35.7111 62.3799 35.5721 62.5136L34.0006 64.0131L32.2684 63.0134L32.8042 60.9248C32.8577 60.7326 32.8013 60.5137 32.6613 60.3713C32.2327 59.944 31.8359 59.4442 31.5363 58.9254C31.4387 58.7563 31.2493 58.6442 31.0541 58.6398L28.8933 58.6043L28.3754 56.6585L30.2326 55.5517C30.4003 55.4467 30.5059 55.2496 30.5005 55.0519C30.5034 54.4217 30.5852 53.8436 30.7327 53.231C30.7796 53.0439 30.7237 52.8343 30.5898 52.6954L29.1076 51.1423L30.1076 49.4108L32.1791 49.9463C32.3745 49.9954 32.594 49.9314 32.7327 49.7856C33.1506 49.3668 33.6649 48.9949 34.1971 48.661C34.3596 48.5591 34.4643 48.3708 34.4649 48.179L34.5185 46.0368L36.4293 45.5011Z" fill="#F57E20"/>
<path d="M31.7156 24.2578C28.2507 24.2578 25.4297 27.0778 25.4297 30.5415C25.4297 34.0052 28.2507 36.8253 31.7156 36.8253C35.1805 36.8253 38.0016 34.0052 38.0016 30.5415C38.0016 27.0778 35.1805 24.2578 31.7156 24.2578ZM31.7156 25.4003C34.5629 25.4003 36.8587 27.6953 36.8587 30.5415C36.8587 33.3877 34.5629 35.6829 31.7156 35.6829C28.8684 35.6829 26.5726 33.3877 26.5726 30.5415C26.5726 27.6953 28.8684 25.4003 31.7156 25.4003ZM55.163 36.2541C52.3293 36.2541 50.0199 38.5626 50.0199 41.3953C50.0199 44.228 52.3293 46.5365 55.163 46.5365C57.9966 46.5365 60.306 44.228 60.306 41.3953C60.306 38.5626 57.9966 36.2541 55.163 36.2541ZM55.163 37.3966C57.379 37.3966 59.1631 39.18 59.1631 41.3953C59.1631 43.6106 57.379 45.3941 55.163 45.3941C52.9469 45.3941 51.1628 43.6106 51.1628 41.3953C51.1628 39.18 52.9469 37.3966 55.163 37.3966ZM38.0195 51.1065C35.817 51.1065 34.0193 52.9036 34.0193 55.1053C34.0193 57.3069 35.817 59.1041 38.0195 59.1041C40.2219 59.1041 42.0196 57.3069 42.0196 55.1053C42.0196 52.9036 40.2219 51.1065 38.0195 51.1065ZM38.0195 52.2491C39.6043 52.2491 40.8767 53.521 40.8767 55.1053C40.8767 56.6895 39.6043 57.9616 38.0195 57.9616C36.4346 57.9616 35.1622 56.6895 35.1622 55.1053C35.1622 53.521 36.4346 52.2491 38.0195 52.2491Z" fill="#224089"/>
<circle cx="40" cy="40" r="39.25" stroke="#224089" stroke-width="1.5"/>
</svg>
