<svg width="10" height="6" viewBox="0 0 10 6" fill="" xmlns="http://www.w3.org/2000/svg">
<path d="M4.31373 0.724138L5 0L5.68628 0.724138L10 5.27586L9.31373 6L5 1.44828L0.686275 6L0 5.27586L4.31373 0.724138Z" fill=""/>
</svg>
